<?xml version="1.0" encoding="iso-8859-1"?>
<!-- Generator: Adobe Illustrator 19.1.0, SVG Export Plug-In . SVG Version: 6.00 Build 0)  -->
<svg version="1.1" xmlns="http://www.w3.org/2000/svg" xmlns:xlink="http://www.w3.org/1999/xlink" x="0px" y="0px"
	 viewBox="0 0 45.321 37.935" style="enable-background:new 0 0 45.321 37.935;" xml:space="preserve">
<g id="athletics">
	<g>
		<g>
			<path style="fill:#565656;" d="M0,21.111l0.741-1.833c1.938-4.794,3.363-7.98,4.914-10.08c2.373-3.214,9.2-10.527,21.271-8.989
				c1.584,0.202,5.044,0.92,6.296,1.634L32.237,3.57c-0.792-0.452-3.805-1.166-5.563-1.389C15.646,0.776,9.418,7.447,7.252,10.379
				c-1.119,1.514-2.208,3.677-3.975,7.942c1.072-0.149,2.04-0.188,2.821-0.219c0.272-0.011,0.524-0.021,0.753-0.035l0.12,1.983
				c-0.241,0.014-0.507,0.025-0.794,0.037c-1.187,0.047-2.664,0.105-4.265,0.523L0,21.111z"/>
		</g>
		<g>
			<path style="fill:#565656;" d="M10.378,37.016l-0.543-1.473c-2.388-6.764-1.579-12.863-0.907-15.892l1.98,0.439
				c-0.576,2.596-1.231,7.608,0.404,13.297c0.821-0.738,1.559-1.381,2.174-1.892l1.296,1.562c-0.87,0.721-2,1.721-3.267,2.889
				L10.378,37.016z"/>
		</g>
		<path style="fill:#565656;" d="M39.286,8.222c-0.055-0.856-0.327-2.232-1.371-3.571c-1.442-1.849-3.847-3.029-7.154-3.514
			c-0.252-0.037-0.509-0.071-0.771-0.1c-11.307-1.242-17.823,5.392-20.7,9.457l-0.035,0.053c-0.105,0.169-2.478,4.018-4.336,9.615
			c-0.101,0.304-0.201,0.613-0.299,0.927L4.01,23.053l1.955-0.635c0.956-0.31,1.796-0.518,2.536-0.656
			c1.939-0.361,3.165-0.22,3.824-0.053c-0.313,1.93-0.778,6.692,0.911,12.31c0.231,0.769,0.502,1.553,0.819,2.349l0.626,1.567
			l1.145-1.24c4.375-4.736,7.165-6.693,8.614-7.491c0.443-0.244,0.762-0.381,0.961-0.454l3.797,1.777l4.978,2.329l-0.572-2.194
			c-0.023-0.089-2.259-8.942,3.089-11.937c1.053-0.59,2.016-0.503,2.829-0.131c0.589,0.269,1.099,0.688,1.507,1.108
			c0.653,0.672,1.046,1.346,1.084,1.413l1.025,1.818l0.87-1.897c0.033-0.071,0.806-1.779,1.241-4.654
			C45.958,11.701,41.151,9.06,39.286,8.222z"/>
		<path style="fill:#FFFFFF;" d="M32.592,18.5c-2.99,2.335-4.295,5.326-5.762,8.511l4.328,2.082
			c-0.123-3.263-0.236-8.11,3.966-11.132c0.142-0.102,0.304-0.161,0.454-0.23C34.733,17.621,33.61,17.705,32.592,18.5z"/>
		<path style="fill:#FFFFFF;" d="M34.888,10.18c-0.259-0.356-1.315-1.943-4.55-2.146c-2.725-0.171-4.29,0.74-5.376,1.644
			c2.062-0.639,4.429-0.313,5.922,0.536c1.334,0.758,2.987,2.313,4.229,2.353C35.114,12.568,35.147,10.536,34.888,10.18z"/>
	</g>
</g>
<g id="Layer_1">
</g>
</svg>
