<?xml version="1.0" encoding="iso-8859-1"?>
<!-- Generator: Adobe Illustrator 19.1.0, SVG Export Plug-In . SVG Version: 6.00 Build 0)  -->
<svg version="1.1" xmlns="http://www.w3.org/2000/svg" xmlns:xlink="http://www.w3.org/1999/xlink" x="0px" y="0px"
	 viewBox="0 0 37.877 38.202" style="enable-background:new 0 0 37.877 38.202;" xml:space="preserve">
<g id="campus-tour">
	<g>
		<path style="fill:#464646;" d="M34.245,1.897h-1.151C32.478,0.768,31.279,0,29.904,0H3.631C1.629,0,0,1.629,0,3.631v29.043
			c0,2.002,1.629,3.631,3.631,3.631h1.151c0.616,1.129,1.815,1.897,3.19,1.897h10.393h8.53h7.349c2.002,0,3.631-1.629,3.631-3.631
			V5.529C37.877,3.526,36.248,1.897,34.245,1.897z M7.972,1.897L7.972,1.897c-1.001,0-1.909,0.407-2.566,1.065
			C6.063,2.305,6.971,1.897,7.972,1.897z M18.793,36.066v-6.786h7.676v6.786H18.793z M35.741,34.571
			c0,0.824-0.671,1.495-1.495,1.495h-3.057h-2.583v-7.213c0-0.942-0.767-1.709-1.709-1.709h-8.53c-0.942,0-1.709,0.767-1.709,1.709
			v7.213H7.972c-0.825,0-1.495-0.671-1.495-1.495V5.529c0-0.825,0.671-1.495,1.495-1.495h25.563h0.71
			c0.824,0,1.495,0.671,1.495,1.495V34.571z"/>
		<path style="fill:#464646;" d="M32.073,16.214h-3.899c-0.942,0-1.709,0.767-1.709,1.709v4.255c0,0.942,0.767,1.709,1.709,1.709
			h3.899c0.942,0,1.709-0.767,1.709-1.709v-4.255C33.782,16.98,33.015,16.214,32.073,16.214z M31.646,21.75h-3.044V18.35h3.044
			V21.75z"/>
		<path style="fill:#464646;" d="M23.058,16.214h-3.899c-0.942,0-1.709,0.767-1.709,1.709v4.255c0,0.942,0.766,1.709,1.709,1.709
			h3.899c0.942,0,1.709-0.767,1.709-1.709v-4.255C24.767,16.98,24,16.214,23.058,16.214z M22.631,21.75h-3.044V18.35h3.044V21.75z"
			/>
		<path style="fill:#464646;" d="M13.825,16.214H9.926c-0.942,0-1.709,0.767-1.709,1.709v4.255c0,0.942,0.767,1.709,1.709,1.709
			h3.899c0.942,0,1.709-0.767,1.709-1.709v-4.255C15.534,16.98,14.767,16.214,13.825,16.214z M13.398,21.75h-3.044V18.35h3.044
			V21.75z"/>
		<path style="fill:#464646;" d="M32.182,6.551h-3.899c-0.942,0-1.709,0.767-1.709,1.709v4.255c0,0.942,0.767,1.709,1.709,1.709
			h3.899c0.942,0,1.709-0.767,1.709-1.709V8.26C33.891,7.318,33.125,6.551,32.182,6.551z M31.755,12.088h-3.044V8.687h3.044V12.088z
			"/>
		<path style="fill:#464646;" d="M23.167,6.551h-3.899c-0.942,0-1.709,0.767-1.709,1.709v4.255c0,0.942,0.766,1.709,1.709,1.709
			h3.899c0.942,0,1.709-0.767,1.709-1.709V8.26C24.876,7.318,24.109,6.551,23.167,6.551z M22.74,12.088h-3.044V8.687h3.044V12.088z"
			/>
		<path style="fill:#464646;" d="M13.934,6.551h-3.899c-0.942,0-1.709,0.767-1.709,1.709v4.255c0,0.942,0.767,1.709,1.709,1.709
			h3.899c0.942,0,1.709-0.767,1.709-1.709V8.26C15.643,7.318,14.876,6.551,13.934,6.551z M13.507,12.088h-3.044V8.687h3.044V12.088z
			"/>
	</g>
</g>
<g id="Layer_1">
</g>
</svg>
