<?xml version="1.0" encoding="iso-8859-1"?>
<!-- Generator: Adobe Illustrator 19.1.0, SVG Export Plug-In . SVG Version: 6.00 Build 0)  -->
<svg version="1.1" xmlns="http://www.w3.org/2000/svg" xmlns:xlink="http://www.w3.org/1999/xlink" x="0px" y="0px"
	 viewBox="0 0 44.991 38.336" style="enable-background:new 0 0 44.991 38.336;" xml:space="preserve">
<g id="programs">
	<g>
		<path style="fill:#565656;" d="M28.476,20.783V3.214C28.476,1.442,27.034,0,25.261,0h-0.694h-8.004
			c-1.772,0-3.214,1.442-3.214,3.214v5.13C12.917,8.126,12.429,8,11.911,8H3.214C1.442,8,0,9.442,0,11.214v21.48
			c0,0.272,0.038,0.534,0.101,0.786c0.352,1.393,1.612,2.428,3.113,2.428h8.697c0.915,0,1.741-0.387,2.327-1.003
			c0.586,0.616,1.411,1.003,2.326,1.003h8.697c1.772,0,3.214-1.442,3.214-3.214v-1.247h-1.891v1.247c0,0.73-0.594,1.324-1.324,1.324
			h-8.697c-0.435,0-0.821-0.212-1.062-0.537c-0.163-0.22-0.261-0.492-0.261-0.786V3.214c0-0.73,0.594-1.323,1.323-1.323h8.105h0.592
			c0.73,0,1.324,0.594,1.324,1.323v17.569H28.476z M11.911,34.017H3.214c-0.435,0-0.821-0.212-1.062-0.537
			c-0.163-0.22-0.261-0.492-0.261-0.786v-21.48c0-0.73,0.594-1.323,1.324-1.323h8.697c0.73,0,1.324,0.594,1.324,1.323v21.48
			c0,0.295-0.098,0.566-0.261,0.786C12.732,33.805,12.347,34.017,11.911,34.017z"/>
		<path style="fill:none;" d="M29.119,4.319h-8.697c-0.73,0-1.323,0.594-1.323,1.323v29.48c0,0.73,0.594,1.324,1.323,1.324h8.697
			c0.73,0,1.324-0.594,1.324-1.324v-2.193h-2.48c-1.206,0-2.193-0.987-2.193-2.193V26.35c0-1.206,0.987-2.193,2.193-2.193h2.48
			V5.642C30.442,4.912,29.848,4.319,29.119,4.319z"/>
		<path style="fill:none;" d="M7.071,36.445h8.697c0.435,0,0.821-0.212,1.062-0.537h-0.216c-0.915,0-1.74-0.387-2.326-1.003
			c-0.586,0.616-1.411,1.003-2.327,1.003H6.009C6.25,36.233,6.636,36.445,7.071,36.445z"/>
		<path style="fill:#565656;" d="M32.333,23.211V5.642c0-1.772-1.442-3.214-3.214-3.214h-0.694h-8.004
			c-1.772,0-3.214,1.442-3.214,3.214v5.13c-0.434-0.218-0.921-0.344-1.439-0.344H7.071c-1.772,0-3.214,1.442-3.214,3.214v21.48
			c0,0.272,0.038,0.534,0.101,0.786c0.352,1.393,1.612,2.428,3.113,2.428h8.697c0.915,0,1.741-0.387,2.327-1.003
			c0.586,0.616,1.411,1.003,2.326,1.003h8.697c1.772,0,3.214-1.442,3.214-3.214v-1.247h-1.891v1.247c0,0.73-0.594,1.324-1.324,1.324
			h-8.697c-0.435,0-0.821-0.212-1.062-0.537c-0.163-0.22-0.261-0.492-0.261-0.786V5.642c0-0.73,0.594-1.323,1.323-1.323h8.105h0.592
			c0.73,0,1.324,0.594,1.324,1.323v17.569H32.333z M15.768,36.445H7.071c-0.435,0-0.821-0.212-1.062-0.537
			c-0.163-0.22-0.261-0.492-0.261-0.786v-21.48c0-0.73,0.594-1.323,1.324-1.323h8.697c0.73,0,1.324,0.594,1.324,1.323v21.48
			c0,0.295-0.098,0.566-0.261,0.786C16.589,36.233,16.204,36.445,15.768,36.445z"/>
		<path style="fill:#565656;" d="M15.4,36.842H7.263c-1.125,0-2.046-0.921-2.046-2.046V13.467c0-1.125,0.921-2.046,2.046-2.046H15.4
			c1.125,0,2.046,0.921,2.046,2.046v21.329C17.446,35.922,16.525,36.842,15.4,36.842z"/>
		<path style="fill:#565656;" d="M29.858,37.092H21.13c-1.361,0-2.474-1.113-2.474-2.474V6.317c0-1.361,1.113-2.474,2.474-2.474
			h8.729c1.361,0,2.474,1.113,2.474,2.474v28.302C32.333,35.979,31.219,37.092,29.858,37.092z"/>
		<path style="fill:#FFFFFF;stroke:#565656;stroke-width:1.3;stroke-miterlimit:10;" d="M44.012,27.792l-6.483-6.094
			c-0.439-0.413-0.799-0.258-0.799,0.346v2.113h-4.397h-1.891h-2.48c-1.206,0-2.193,0.987-2.193,2.193v4.386
			c0,1.206,0.987,2.193,2.193,2.193h2.48h1.891h4.397v2.113c0,0.603,0.36,0.759,0.799,0.346l6.483-6.094
			C44.451,28.881,44.451,28.205,44.012,27.792z"/>
		<g>
			<path style="fill:#FFFFFF;" d="M28.435,9.962h-7.329c-0.303,0-0.548-0.491-0.548-1.096s0.245-1.096,0.548-1.096h7.329
				c0.303,0,0.548,0.491,0.548,1.096S28.737,9.962,28.435,9.962z"/>
		</g>
		<g>
			<path style="fill:#FFFFFF;" d="M28.435,14.117h-7.329c-0.303,0-0.548-0.491-0.548-1.096s0.245-1.096,0.548-1.096h7.329
				c0.303,0,0.548,0.491,0.548,1.096S28.737,14.117,28.435,14.117z"/>
		</g>
		<g>
			<path style="fill:#FFFFFF;" d="M15.084,17.954H7.755c-0.303,0-0.548-0.491-0.548-1.096s0.245-1.096,0.548-1.096h7.329
				c0.303,0,0.548,0.491,0.548,1.096S15.387,17.954,15.084,17.954z"/>
		</g>
		<g>
			<path style="fill:#FFFFFF;" d="M15.084,21.893H7.755c-0.303,0-0.548-0.491-0.548-1.096S7.452,19.7,7.755,19.7h7.329
				c0.303,0,0.548,0.491,0.548,1.096S15.387,21.893,15.084,21.893z"/>
		</g>
	</g>
</g>
<g id="Layer_1">
</g>
</svg>
