<?xml version="1.0" encoding="UTF-8" standalone="no"?>
<!-- Created with Inkscape (http://www.inkscape.org/) -->

<svg
   xmlns:dc="http://purl.org/dc/elements/1.1/"
   xmlns:cc="http://creativecommons.org/ns#"
   xmlns:rdf="http://www.w3.org/1999/02/22-rdf-syntax-ns#"
   xmlns:svg="http://www.w3.org/2000/svg"
   xmlns="http://www.w3.org/2000/svg"
   xmlns:sodipodi="http://sodipodi.sourceforge.net/DTD/sodipodi-0.dtd"
   xmlns:inkscape="http://www.inkscape.org/namespaces/inkscape"
   id="svg2"
   version="1.1"
   inkscape:version="0.48.4 r9939"
   width="538.2375"
   height="412.575"
   xml:space="preserve"
   sodipodi:docname="hfc-white.eps"><metadata
     id="metadata8"><rdf:RDF><cc:Work
         rdf:about=""><dc:format>image/svg+xml</dc:format><dc:type
           rdf:resource="http://purl.org/dc/dcmitype/StillImage" /><dc:title></dc:title></cc:Work></rdf:RDF></metadata><defs
     id="defs6" /><sodipodi:namedview
     pagecolor="#ffffff"
     bordercolor="#666666"
     borderopacity="1"
     objecttolerance="10"
     gridtolerance="10"
     guidetolerance="10"
     inkscape:pageopacity="0"
     inkscape:pageshadow="2"
     inkscape:window-width="1117"
     inkscape:window-height="621"
     id="namedview4"
     showgrid="false"
     inkscape:zoom="0.57201719"
     inkscape:cx="269.11874"
     inkscape:cy="206.28751"
     inkscape:window-x="454"
     inkscape:window-y="229"
     inkscape:window-maximized="0"
     inkscape:current-layer="g10" /><g
     id="g10"
     inkscape:groupmode="layer"
     inkscape:label="ink_ext_XXXXXX"
     transform="matrix(1.25,0,0,-1.25,0,412.575)"><g
       id="g12"
       transform="scale(0.1,0.1)"><path
         d="M 1.83203,616.488 C 206.801,713.379 731.813,1036.93 3030.86,878.941 1615.44,872.281 935.586,717.48 869.098,0 L 0,0 1.83203,616.488"
         style="fill:#ffffff;fill-opacity:1;fill-rule:nonzero;stroke:none"
         id="path14" /><path
         d="m 199.84,2784.42 c -72.66,0 -75.692,-3.02 -75.692,-48.44 L 127.473,2290.87 0,2290.51 l 0,1005.38 124.148,0 0,-402.45 c 0,-46.95 3.032,-48.46 75.692,-48.46 l 432.996,0 c 72.676,0 75.703,1.51 75.703,48.46 l 0,405.73 124.152,0 0,-1008.3 -124.152,0 0,445.11 c 0,45.42 -3.027,48.44 -75.703,48.44 l -432.996,0"
         style="fill:#ffffff;fill-opacity:1;fill-rule:nonzero;stroke:none"
         id="path16" /><path
         d="m 2622.92,2287.85 c -3.02,-9.1 -12.11,-16.67 -28.77,-16.67 -18.16,25.74 -62.07,78.74 -193.78,228.61 l -351.25,399.7 c -40.87,46.92 -128,171.07 -159.79,204.38 l -6.45,0 c -6.05,-18.18 -4.14,-53 -4.14,-98.41 l 0.48,-714.59 -78.32,0 -0.56,1006.29 91.33,-0.48 c 0,0 208.92,-274.55 258.88,-330.57 l 146.87,-165.03 c 104.46,-116.58 178.64,-201.37 249.8,-274.03 l -12.81,0 c 6.07,7.56 6.07,31.79 6.07,63.58 l 0,323.99 c 0,71.15 -0.1,382.54 -0.1,382.54 l 82.2,0 c 0,0 -4.21,-969.95 0.34,-1009.31"
         style="fill:#ffffff;fill-opacity:1;fill-rule:nonzero;stroke:none"
         id="path18" /><path
         d="m 2953.44,2849.52 c 0,-27.25 0,-43.89 4.54,-49.95 4.53,-4.56 27.25,-7.59 104.46,-7.59 54.5,0 112.03,6.08 155.94,39.39 40.88,31.79 75.7,84.76 75.7,187.71 0,119.61 -74.19,233.17 -242.23,233.17 -93.87,0 -98.41,-6.08 -98.41,-48.46 l 0,-354.27 z m -124.04,450.09 c 214.53,0 394.8,11.46 480.4,-42.24 66.58,-41.78 122.05,-109.6 122.05,-215.57 0,-143.82 -113.55,-222.56 -189.24,-252.85 -7.58,-9.07 0,-24.2 7.56,-36.32 121.12,-195.31 201.36,-316.43 304.31,-402.71 25.73,-22.71 104.46,-42.4 104.46,-42.4 l 0.31,-21.19 c 0,0 -36.64,-7.58 -65.41,-7.58 -128.69,0 -205.89,37.87 -313.39,190.76 -39.36,56.02 -101.43,160.48 -148.37,228.6 -22.71,33.31 -46.93,48.46 -107.49,48.46 -68.13,0 -71.15,-1.51 -71.15,-33.3 l 0,-419.11 -124.15,0 0.11,1005.45"
         style="fill:#ffffff;fill-opacity:1;fill-rule:nonzero;stroke:none"
         id="path20" /><path
         d="m 2239.26,1537.27 c 0,-31.97 0,-51.48 5.32,-58.57 5.33,-5.36 31.97,-8.9 122.5,-8.9 63.93,0 131.38,7.12 182.87,46.18 47.95,37.28 88.78,99.4 88.78,220.12 0,140.27 -87,273.44 -284.07,273.44 -110.08,0 -115.4,-7.12 -115.4,-56.83 l 0,-415.44 z m -145.45,527.59 c 251.57,0 462.97,13.67 563.35,-49.32 78.07,-48.98 143.12,-128.52 143.12,-252.8 0,-168.64 -133.16,-260.98 -221.91,-296.49 -8.89,-10.65 0,-28.39 8.87,-42.61 142.04,-229.03 236.13,-371.07 356.86,-472.249 30.17,-26.641 233.89,-40.782 233.89,-40.782 l 0.36,-24.828 c 0,0 -150.59,-9.16 -184.33,-9.16 -150.91,0 -245.21,35.719 -371.27,215.019 -46.16,65.69 -118.95,188.19 -173.99,268.08 -26.64,39.05 -55.04,56.82 -126.06,56.82 -79.89,0 -83.44,-1.77 -83.44,-39.05 l 0,-491.49 -145.59,0 0.14,1178.86"
         style="fill:#ffffff;fill-opacity:1;fill-rule:nonzero;stroke:none"
         id="path22" /><path
         d="m 152.988,1555.31 c 0,-48.24 5.371,-48.24 58.969,-48.24 l 121.5,0 c 73.266,0 175.84,0.15 175.84,0.15 l 0,-62.45 c 0,0 -107.93,-0.25 -175.84,-0.25 l -121.5,0 c -53.598,0 -58.969,-1.8 -58.969,-48.25 l 0,-519.95 -150.24972,0 -0.90625,1188.24 649.69097,0 0,-76.9 c 0,0 -260.882,0.31 -335.933,0.31 l -108.988,0 c -53.614,0 -53.614,-3.57 -53.614,-71.47 l 0,-361.19"
         style="fill:#ffffff;fill-opacity:1;fill-rule:nonzero;stroke:none"
         id="path24" /><path
         d="m 1247.46,485.699 c 58.28,45.52 132.54,67.883 215.59,67.883 43.12,0 103.81,-8.781 141.33,-19.172 9.58,-2.39 19.87,-6.898 19.87,-6.898 l -19.86,-18.492 c -26.33,3.878 -74.27,19.8 -151.72,19.8 -122.17,0 -225.98,-77.449 -225.98,-242.718 0,-167.704 106.2,-260.3207 237.16,-260.3207 103.01,0 166.88,114.1877 166.88,114.1877 l 20.76,-3.199 c 0,0 -57.49,-114.188 -66.28,-117.3794 C 1567.65,13 1510.16,1.01953 1459.05,1.01953 c -71.86,0 -140.53,14.37887 -198.82,53.51957 -63.87,43.9023 -113.38,116.5629 -113.38,219.5699 0,88.641 39.92,164.5 100.61,211.59"
         style="fill:#ffffff;fill-opacity:1;fill-rule:nonzero;stroke:none"
         id="path26" /><path
         d="m 2161.3,254.941 c 0,131.758 -58.29,273.879 -210.8,273.879 -83.04,0 -190.84,-56.691 -190.84,-231.55 0,-118.18 57.49,-271.4887 214.79,-271.4887 95.82,0 186.85,71.8593 186.85,229.1597 z m -481.49,16.77 c 0,159.699 119.77,281.871 284.26,281.871 184.46,0 277.08,-133.344 277.08,-273.891 0,-161.293 -122.97,-278.67147 -277.08,-278.67147 -177.26,0 -284.26,126.96047 -284.26,270.69147"
         style="fill:#ffffff;fill-opacity:1;fill-rule:nonzero;stroke:none"
         id="path28" /><path
         d="m 3888.56,95.25 c 0,-31.9297 -5.58,-69.4687 -20.76,-73.4687 C 3825.49,10.6094 3768,1.01953 3724.88,1.01953 c -95.03,0 -182.07,26.37107 -243.54,88.64067 -47.91,47.9098 -73.46,110.9878 -73.46,181.2498 0,67.879 22.35,136.551 71.86,189.238 53.5,55.911 132.55,93.434 253.12,93.434 45.52,0 87.83,-8.781 101.41,-11.973 15.16,-3.187 49.5,-7.199 49.5,-7.199 l 11.98,-115.769 -21.56,-2.391 c -22.35,86.23 -82.24,113.371 -163.68,113.371 -154.91,0 -222.79,-110.18 -222.79,-229.961 0,-153.308 79.06,-273.8787 239.56,-273.8787 49.5,0 79.04,10.3867 87.83,23.9492 3.99,5.6093 7.98,19.9609 7.98,45.5195 l 0,152.289 65.47,0.25 0,-152.539"
         style="fill:#ffffff;fill-opacity:1;fill-rule:nonzero;stroke:none"
         id="path30" /><path
         d="m 2699.21,538.07 65.48,0 0,-394.91 c 0,-50.3006 -2.89,-79.8592 14.26,-84.8006 11.94,-3.4297 226.08,-1.25 226.08,-1.25 l 0,-44.211 c 0,0 -116.57,0.9024 -198.82,0.9024 l -73.46,0 c -33.54,0 -33.54,35.9297 -33.54,119.7812 l 0,404.488"
         style="fill:#ffffff;fill-opacity:1;fill-rule:nonzero;stroke:none"
         id="path32" /><path
         d="m 1749.12,1420.51 c 0,294.18 -130.16,611.55 -470.7,611.55 -185.41,0 -426.107,-126.59 -426.107,-517.04 0,-263.86 128.378,-606.18 479.607,-606.18 213.94,0 417.2,160.45 417.2,511.67 z m -1075.089,37.45 c 0,356.59 267.438,629.35 634.709,629.35 411.85,0 618.66,-297.73 618.66,-611.52 0,-360.15 -274.56,-622.22 -618.66,-622.22 -395.806,0 -634.709,283.49 -634.709,604.39"
         style="fill:#ffffff;fill-opacity:1;fill-rule:nonzero;stroke:none"
         id="path34" /><path
         d="m 3291.14,1195 c 0,-94.52 5.36,-151.56 35.66,-194.34 39.22,-55.281 106.98,-73.109 219.29,-73.109 345.88,0 501,226.419 501,558.049 0,196.13 -94.49,527.73 -561.61,527.73 -105.19,0 -162.24,-14.25 -176.52,-24.94 -14.25,-10.72 -17.82,-55.28 -17.82,-135.52 l 0,-657.87 z m -146.19,636.49 c 0,124.79 4.68,233.93 4.68,233.93 0,0 170.04,3.18 321.58,3.18 149.77,0 276.35,-10.69 392.25,-53.48 240.69,-87.35 361.91,-290.62 361.91,-525.95 0,-226.44 -108.76,-420.76 -312,-531.299 -115.88,-62.402 -262.09,-85.59 -399.37,-85.59 -114.1,0 -301.97,13.938 -364.37,13.938 0,0 -4.68,80.57 -4.68,267.751 l 0,677.52"
         style="fill:#ffffff;fill-opacity:1;fill-rule:nonzero;stroke:none"
         id="path36" /><path
         d="m 4167.92,3297.16 c 0,0 -75.25,-167.55 -82.83,-182.7 -55.31,-110.62 -86.49,-228.58 -144.1,-332.11 -57.62,103.53 -88.79,221.49 -144.11,332.11 -7.57,15.15 -82.83,182.7 -82.83,182.7 l -138.01,0 252.64,-506.69 c 43.91,-84.77 48.45,-104.45 48.45,-187.71 l 0,-306.78 127.71,0 0,306.78 c 0,83.26 4.54,102.94 48.45,187.71 l 252.64,506.69 -138.01,0"
         style="fill:#ffffff;fill-opacity:1;fill-rule:nonzero;stroke:none"
         id="path38" /><path
         d="m 1340.3,2360.68 -108.82,0 c -45.35,0 -45.35,3.02 -45.35,60.49 l 0,323.77 c 0,42.33 4.53,42.33 49.88,42.33 l 87.67,0 c 63.47,0 194.93,0.12 194.93,0.12 l -0.06,26.58 0.06,26.58 c 0,0 -131.46,0.12 -194.93,0.12 l -87.67,0 c -45.35,0 -49.88,0 -49.88,42.33 l 0,286.45 c 0,57.47 0,60.49 45.35,60.49 l 108.82,0 c 66.51,0 274.85,-0.75 274.85,-0.75 l 0.25,67.97 -551.29,0 -0.28,-483.19 0.28,-520.51 551.29,0 -0.25,67.97 c 0,0 -208.34,-0.75 -274.85,-0.75"
         style="fill:#ffffff;fill-opacity:1;fill-rule:nonzero;stroke:none"
         id="path40" /><path
         d="m 4135.32,56.6719 -56.01,0 c -23.35,0 -23.35,1.5469 -23.35,31.1289 l 0,161.8202 c 0,21.789 2.33,21.789 25.67,21.789 l 45.14,0 c 32.67,0 100.35,0.059 100.35,0.059 l -0.03,13.691 0.03,13.68 c 0,0 -67.68,0.058 -100.35,0.058 l -45.14,0 c -23.34,0 -25.67,0 -25.67,21.793 l 0,144.25 c 0,29.579 0,31.129 23.35,31.129 l 56.01,0 c 34.24,0 141.5,-0.379 141.5,-0.379 l 0.12,43.09 -283.8,0 -0.14,-253.621 0.14,-271.2108 283.8,0 -0.12,43.1016 c 0,0 -107.26,-0.3789 -141.5,-0.3789"
         style="fill:#ffffff;fill-opacity:1;fill-rule:nonzero;stroke:none"
         id="path42" /><path
         d="m 3221.92,56.6719 -56.02,0 c -23.34,0 -23.34,1.5469 -23.34,31.1289 l 0,161.8202 c 0,21.789 2.33,21.789 25.68,21.789 l 45.13,0 c 32.67,0 100.35,0.059 100.35,0.059 l -0.03,13.691 0.03,13.68 c 0,0 -67.68,0.058 -100.35,0.058 l -45.13,0 c -23.35,0 -25.68,0 -25.68,21.793 l 0,144.25 c 0,29.579 0,31.129 23.34,31.129 l 56.02,0 c 34.24,0 141.49,-0.379 141.49,-0.379 l 0.13,43.09 -283.8,0 -0.14,-253.621 0.14,-271.2108 283.8,0 -0.13,43.1016 c 0,0 -107.25,-0.3789 -141.49,-0.3789"
         style="fill:#ffffff;fill-opacity:1;fill-rule:nonzero;stroke:none"
         id="path44" /><path
         d="m 2315.2,538.07 65.47,0 0,-409.73 c 0,-50.3087 -2.88,-65.0392 14.27,-69.9806 11.94,-3.4297 226.08,-1.25 226.08,-1.25 l 0,-44.211 c 0,0 -116.58,0.9024 -198.82,0.9024 l -73.46,0 c -33.54,0 -33.54,35.9297 -33.54,119.7812 l 0,404.488"
         style="fill:#ffffff;fill-opacity:1;fill-rule:nonzero;stroke:none"
         id="path46" /></g></g></svg>